%YAML 1.1
%TAG !u! tag:unity3d.com,2011:
--- !u!1001 &8271787101740738576
PrefabInstance:
  m_ObjectHideFlags: 0
  serializedVersion: 2
  m_Modification:
    m_TransformParent: {fileID: 4013268318740139459}
    m_Modifications:
    - target: {fileID: -927199367670048503, guid: 3b5b00c8c5ff0fe4c9003a652d65ec8e,
        type: 3}
      propertyPath: m_Name
      value: Border
      objectReference: {fileID: 0}
    - target: {fileID: -4216859302048453862, guid: 3b5b00c8c5ff0fe4c9003a652d65ec8e,
        type: 3}
      propertyPath: m_LocalPosition.x
      value: 0
      objectReference: {fileID: 0}
    - target: {fileID: -4216859302048453862, guid: 3b5b00c8c5ff0fe4c9003a652d65ec8e,
        type: 3}
      propertyPath: m_LocalPosition.y
      value: 0
      objectReference: {fileID: 0}
    - target: {fileID: -4216859302048453862, guid: 3b5b00c8c5ff0fe4c9003a652d65ec8e,
        type: 3}
      propertyPath: m_LocalPosition.z
      value: 0
      objectReference: {fileID: 0}
    - target: {fileID: -4216859302048453862, guid: 3b5b00c8c5ff0fe4c9003a652d65ec8e,
        type: 3}
      propertyPath: m_LocalRotation.x
      value: -0
      objectReference: {fileID: 0}
    - target: {fileID: -4216859302048453862, guid: 3b5b00c8c5ff0fe4c9003a652d65ec8e,
        type: 3}
      propertyPath: m_LocalRotation.y
      value: -0
      objectReference: {fileID: 0}
    - target: {fileID: -4216859302048453862, guid: 3b5b00c8c5ff0fe4c9003a652d65ec8e,
        type: 3}
      propertyPath: m_LocalRotation.z
      value: -0
      objectReference: {fileID: 0}
    - target: {fileID: -4216859302048453862, guid: 3b5b00c8c5ff0fe4c9003a652d65ec8e,
        type: 3}
      propertyPath: m_LocalRotation.w
      value: 1
      objectReference: {fileID: 0}
    - target: {fileID: -4216859302048453862, guid: 3b5b00c8c5ff0fe4c9003a652d65ec8e,
        type: 3}
      propertyPath: m_RootOrder
      value: 0
      objectReference: {fileID: 0}
    - target: {fileID: -4216859302048453862, guid: 3b5b00c8c5ff0fe4c9003a652d65ec8e,
        type: 3}
      propertyPath: m_LocalEulerAnglesHint.x
      value: 0
      objectReference: {fileID: 0}
    - target: {fileID: -4216859302048453862, guid: 3b5b00c8c5ff0fe4c9003a652d65ec8e,
        type: 3}
      propertyPath: m_LocalEulerAnglesHint.y
      value: 0
      objectReference: {fileID: 0}
    - target: {fileID: -4216859302048453862, guid: 3b5b00c8c5ff0fe4c9003a652d65ec8e,
        type: 3}
      propertyPath: m_LocalEulerAnglesHint.z
      value: 0
      objectReference: {fileID: 0}
    - target: {fileID: -4216859302048453862, guid: 3b5b00c8c5ff0fe4c9003a652d65ec8e,
        type: 3}
      propertyPath: m_LocalScale.x
      value: 1.06
      objectReference: {fileID: 0}
    - target: {fileID: -4216859302048453862, guid: 3b5b00c8c5ff0fe4c9003a652d65ec8e,
        type: 3}
      propertyPath: m_LocalScale.y
      value: 1.0600004
      objectReference: {fileID: 0}
    - target: {fileID: -4216859302048453862, guid: 3b5b00c8c5ff0fe4c9003a652d65ec8e,
        type: 3}
      propertyPath: m_LocalScale.z
      value: 1.0600004
      objectReference: {fileID: 0}
    - target: {fileID: -1504981713932161579, guid: 3b5b00c8c5ff0fe4c9003a652d65ec8e,
        type: 3}
      propertyPath: m_Materials.Array.data[0]
      value: 
      objectReference: {fileID: 2100000, guid: 1777ea691a0211c4e96cccbdc3ba99aa, type: 2}
    m_RemovedComponents: []
  m_SourcePrefab: {fileID: 100100000, guid: 3b5b00c8c5ff0fe4c9003a652d65ec8e, type: 3}
--- !u!1001 &8271787102787364569
PrefabInstance:
  m_ObjectHideFlags: 0
  serializedVersion: 2
  m_Modification:
    m_TransformParent: {fileID: 0}
    m_Modifications:
    - target: {fileID: -927199367670048503, guid: 092680469a5ae174792e0893d62e42c5,
        type: 3}
      propertyPath: m_Name
      value: 'Tile_A '
      objectReference: {fileID: 0}
    - target: {fileID: -4216859302048453862, guid: 092680469a5ae174792e0893d62e42c5,
        type: 3}
      propertyPath: m_LocalPosition.x
      value: 0
      objectReference: {fileID: 0}
    - target: {fileID: -4216859302048453862, guid: 092680469a5ae174792e0893d62e42c5,
        type: 3}
      propertyPath: m_LocalPosition.y
      value: -0
      objectReference: {fileID: 0}
    - target: {fileID: -4216859302048453862, guid: 092680469a5ae174792e0893d62e42c5,
        type: 3}
      propertyPath: m_LocalPosition.z
      value: -2.209
      objectReference: {fileID: 0}
    - target: {fileID: -4216859302048453862, guid: 092680469a5ae174792e0893d62e42c5,
        type: 3}
      propertyPath: m_LocalRotation.x
      value: -0.7071068
      objectReference: {fileID: 0}
    - target: {fileID: -4216859302048453862, guid: 092680469a5ae174792e0893d62e42c5,
        type: 3}
      propertyPath: m_LocalRotation.y
      value: 0
      objectReference: {fileID: 0}
    - target: {fileID: -4216859302048453862, guid: 092680469a5ae174792e0893d62e42c5,
        type: 3}
      propertyPath: m_LocalRotation.z
      value: -0
      objectReference: {fileID: 0}
    - target: {fileID: -4216859302048453862, guid: 092680469a5ae174792e0893d62e42c5,
        type: 3}
      propertyPath: m_LocalRotation.w
      value: 0.7071068
      objectReference: {fileID: 0}
    - target: {fileID: -4216859302048453862, guid: 092680469a5ae174792e0893d62e42c5,
        type: 3}
      propertyPath: m_RootOrder
      value: 0
      objectReference: {fileID: 0}
    - target: {fileID: -4216859302048453862, guid: 092680469a5ae174792e0893d62e42c5,
        type: 3}
      propertyPath: m_LocalEulerAnglesHint.x
      value: 0
      objectReference: {fileID: 0}
    - target: {fileID: -4216859302048453862, guid: 092680469a5ae174792e0893d62e42c5,
        type: 3}
      propertyPath: m_LocalEulerAnglesHint.y
      value: 0
      objectReference: {fileID: 0}
    - target: {fileID: -4216859302048453862, guid: 092680469a5ae174792e0893d62e42c5,
        type: 3}
      propertyPath: m_LocalEulerAnglesHint.z
      value: 0
      objectReference: {fileID: 0}
    - target: {fileID: -1504981713932161579, guid: 092680469a5ae174792e0893d62e42c5,
        type: 3}
      propertyPath: m_Materials.Array.data[0]
      value: 
      objectReference: {fileID: 2100000, guid: d33f6378a8adae04aabe4e3ecbc0ae77, type: 2}
    m_RemovedComponents: []
  m_SourcePrefab: {fileID: 100100000, guid: 092680469a5ae174792e0893d62e42c5, type: 3}
--- !u!4 &4013268318740139459 stripped
Transform:
  m_CorrespondingSourceObject: {fileID: -4216859302048453862, guid: 092680469a5ae174792e0893d62e42c5,
    type: 3}
  m_PrefabInstance: {fileID: 8271787102787364569}
  m_PrefabAsset: {fileID: 0}
